\relax 
\@writefile{toc}{\contentsline {section}{\numberline {1}Introduction}{3}}
\newlabel{INTRODUCTION}{{1}{3}}
\@writefile{toc}{\contentsline {subsection}{\numberline {1.1}The Kinematica Library}{3}}
\@writefile{toc}{\contentsline {subsection}{\numberline {1.2}Structure of the Document}{3}}
\@writefile{toc}{\contentsline {section}{\numberline {2}Kinematics Theory}{4}}
\newlabel{THEORY}{{2}{4}}
\@writefile{toc}{\contentsline {subsection}{\numberline {2.1}Robot Structure}{4}}
\@writefile{lof}{\contentsline {figure}{\numberline {1}{\ignorespaces Definition of a Segment in Kinematica}}{4}}
\newlabel{FIG_SEGMENT_DEFINITION}{{1}{4}}
\@writefile{lof}{\contentsline {figure}{\numberline {2}{\ignorespaces Description of Robot in Kinematica}}{4}}
\newlabel{FIG_ROBOT_TREE_DEFINITION}{{2}{4}}
\@writefile{toc}{\contentsline {subsection}{\numberline {2.2}Redefining the Root Frame}{5}}
\@writefile{toc}{\contentsline {subsection}{\numberline {2.3}Computing Forward Kinematics}{5}}
\@writefile{toc}{\contentsline {subsection}{\numberline {2.4}Computing Jacobians}{5}}
\newlabel{IK_CROSS}{{1}{5}}
\@writefile{lof}{\contentsline {figure}{\numberline {3}{\ignorespaces Derivation for the End-Effector Jacobian}}{6}}
\newlabel{FIG_EFF_JACOBIAN}{{3}{6}}
\@writefile{toc}{\contentsline {section}{\numberline {3}Using the Library}{7}}
\@writefile{toc}{\contentsline {subsection}{\numberline {3.1}Setup}{7}}
\@writefile{toc}{\contentsline {subsection}{\numberline {3.2}Public API}{8}}
\newlabel{SOLUTION_PARAMS}{{3.2}{8}}
\@writefile{lot}{\contentsline {table}{\numberline {1}{\ignorespaces Definition of the \textbf  {SolutionForm\_t} structure}}{8}}
\newlabel{TAB_SOLUTION_FORM_STRUCTURE}{{1}{8}}
\@writefile{toc}{\contentsline {section}{\numberline {4}The Kinematica Implementation}{13}}
\@writefile{toc}{\contentsline {subsection}{\numberline {4.1}Major Design Decisions}{13}}
\@writefile{toc}{\contentsline {subsection}{\numberline {4.2}Data Types and Auxiliaries}{13}}
\@writefile{lot}{\contentsline {table}{\numberline {2}{\ignorespaces Definition of the \textbf  {KinematicElement\_t} structure}}{15}}
\newlabel{TAB_KINEMATIC_ELEMENT_STRUCTURE}{{2}{15}}
\@writefile{toc}{\contentsline {subsection}{\numberline {4.3}Class Attributes}{16}}
\@writefile{lot}{\contentsline {table}{\numberline {3}{\ignorespaces The Attributes of \textbf  {KinematicTree}: KE\_t signifies KinematicElement\_t}}{16}}
\newlabel{TAB_KINEMATIC_TREE_ATTRIBUTES}{{3}{16}}
\@writefile{toc}{\contentsline {subsection}{\numberline {4.4}Initialisers}{16}}
\@writefile{lof}{\contentsline {figure}{\numberline {4}{\ignorespaces Description of Robot in Kinematica}}{19}}
\newlabel{FIG_ROBOT_TREE_DEFINITION_2}{{4}{19}}
\@writefile{toc}{\contentsline {subsection}{\numberline {4.5}Updaters}{21}}
\@writefile{toc}{\contentsline {subsection}{\numberline {4.6}Accessors}{21}}
\@writefile{toc}{\contentsline {section}{\numberline {A}Known Limitations}{23}}
\@writefile{toc}{\contentsline {section}{\numberline {B}Version History}{23}}
